…
But suppose you want to have an OR logic between your conditions. 

```julia
@linq cars |>
        where( .|(:Cyl .==4, :Cyl .==6))
```

```julia
18×12 DataFrame
 Row │ Model           MPG      Cyl    Disp     HP     DRat     WT       QSec     VS     AM     Gear   Carb  
     │ String          Float64  Int64  Float64  Int64  Float64  Float64  Float64  Int64  Int64  Int64  Int64 
─────┼───────────────────────────────────────────────────────────────────────────────────────────────────────
   1 │ Mazda RX4          21.0      6    160.0    110     3.9     2.62     16.46      0      1      4      4
   2 │ Mazda RX4 Wag      21.0      6    160.0    110     3.9     2.875    17.02      0      1      4      4
   3 │ Datsun 710         22.8      4    108.0     93     3.85    2.32     18.61      1      1      4      1
   4 │ Hornet 4 Drive     21.4      6    258.0    110     3.08    3.215    19.44      1      0      3      1
   5 │ Valiant            18.1      6    225.0    105     2.76    3.46     20.22      1      0      3      1
  ⋮  │       ⋮            ⋮       ⋮       ⋮       ⋮       ⋮        ⋮        ⋮       ⋮      ⋮      ⋮      ⋮
  14 │ Fiat X1-9          27.3      4     79.0     66     4.08    1.935    18.9       1      1      4      1
  15 │ Porsche 914-2      26.0      4    120.3     91     4.43    2.14     16.7       0      1      5      2
  16 │ Lotus Europa       30.4      4     95.1    113     3.77    1.513    16.9       1      1      5      2
  17 │ Ferrari Dino       19.7      6    145.0    175     3.62    2.77     15.5       0      1      5      6
  18 │ Volvo 142E         21.4      4    121.0    109     4.11    2.78     18.6       1      1      4      2
                                                                                               8 rows omitted
```

- The `.|` before the `(  )` is broadcasting the OR operator to all the conditions within the `( )`.

But out of all the columns, if you are only interested in a subset of the columns in the data, you can use the `select()` function to choose the ones you are interested in. 

```julia
@linq cars |>
        where(:Cyl .!=4) |>
        select(:Model, :MPG)
```

```julia
21×2 DataFrame
 Row │ Model                MPG     
     │ String               Float64 
─────┼──────────────────────────────
   1 │ Mazda RX4               21.0
   2 │ Mazda RX4 Wag           21.0
   3 │ Hornet 4 Drive          21.4
   4 │ Hornet Sportabout       18.7
   5 │ Valiant                 18.1
  ⋮  │          ⋮              ⋮
  17 │ Camaro Z28              13.3
  18 │ Pontiac Firebird        19.2
  19 │ Ford Pantera L          15.8
  20 │ Ferrari Dino            19.7
  21 │ Maserati Bora           15.0
                     11 rows omitted
```
…
- For illustration, here we have created a new column called `KPL` (kilometers per liter).

`unstack` and `stack` are commands we use to reshape a data from wide format to long format and vice-versa.

```julia
unstack(cars,:Model,:Cyl,:MPG)
```

```julia
32×4 DataFrame
 Row │ Model              6          4          8
     │ String             Float64?   Float64?   Float64?  
─────┼────────────────────────────────────────────────────
   1 │ Mazda RX4               21.0  missing    missing   
   2 │ Mazda RX4 Wag           21.0  missing    missing   
   3 │ Datsun 710         missing         22.8  missing   
   4 │ Hornet 4 Drive          21.4  missing    missing   
   5 │ Hornet Sportabout  missing    missing         18.7
  ⋮  │         ⋮              ⋮          ⋮          ⋮
  28 │ Lotus Europa       missing         30.4  missing   
  29 │ Ford Pantera L     missing    missing         15.8
  30 │ Ferrari Dino            19.7  missing    missing   
  31 │ Maserati Bora      missing    missing         15.0
  32 │ Volvo 142E         missing         21.4  missing   
                                           22 rows omitted
```
