…
Suppose you downloaded the dataset using the above step or you already had the dataset in your current working directory. Then you can load the dataset into your Julia environment using the following code: 

```julia
using CSV # This is a pacakge we use for loading CSV Files.
using DataFrames
```

 @@colbox-blue :mag:  If you haven't installed the package, you can check the [*Software Setup*](/software-setup/#installing_julia_packages) page to learn how to install packages in Julia. @@

```julia
data = CSV.read("iris.csv", DataFrame) # This will load the dataset and convert it into a DataFrame
```

```julia
150×5 DataFrame
 Row │ sepal_length  sepal_width  petal_length  petal_width  species   
     │ Float64       Float64      Float64       Float64      String    
─────┼─────────────────────────────────────────────────────────────────
   1 │          5.1          3.5           1.4          0.2  setosa
   2 │          4.9          3.0           1.4          0.2  setosa
   3 │          4.7          3.2           1.3          0.2  setosa
   4 │          4.6          3.1           1.5          0.2  setosa
   5 │          5.0          3.6           1.4          0.2  setosa
  ⋮  │      ⋮             ⋮            ⋮             ⋮           ⋮
 146 │          6.7          3.0           5.2          2.3  virginica
 147 │          6.3          2.5           5.0          1.9  virginica
 148 │          6.5          3.0           5.2          2.0  virginica
 149 │          6.2          3.4           5.4          2.3  virginica
 150 │          5.9          3.0           5.1          1.8  virginica
                                                       140 rows omitted
```


## From Packages 

Sometimes  you want toy datasets to develop the "proof-of-concept" code or check your algorithms. In that case,`Rdatasets` is a good starting point. 

The `RDatasets` comes with the `Iris` data, and the following code will illustrate how to load them into your Julia environment. 

```julia
using RDatasets 
data = dataset("datasets", "iris")
```

```julia
150×5 DataFrame
 Row │ sepal_length  sepal_width  petal_length  petal_width  species   
     │ Float64       Float64      Float64       Float64      String    
─────┼─────────────────────────────────────────────────────────────────
   1 │          5.1          3.5           1.4          0.2  setosa
   2 │          4.9          3.0           1.4          0.2  setosa
   3 │          4.7          3.2           1.3          0.2  setosa
   4 │          4.6          3.1           1.5          0.2  setosa
   5 │          5.0          3.6           1.4          0.2  setosa
  ⋮  │      ⋮             ⋮            ⋮             ⋮           ⋮
 146 │          6.7          3.0           5.2          2.3  virginica
 147 │          6.3          2.5           5.0          1.9  virginica
 148 │          6.5          3.0           5.2          2.0  virginica
 149 │          6.2          3.4           5.4          2.3  virginica
 150 │          5.9          3.0           5.1          1.8  virginica
                                                       140 rows omitted
```
