…
## Loading Packages

```julia
using DataFrames, CSV, ScikitLearn, PyPlot 
```

## Loading the dataset 

```julia
data = CSV.File("covid_cleaned.csv") |> DataFrame
```

```julia
20352×16 DataFrame
   Row │ intubed  pneumonia  age    pregnancy  diabetes  copd   asthma  inmsupr  hypertension  other_disease  cardiovascular  obesity  renal_chronic  tobacco  contact_other_covid  covid_res 
       │ Int64    Int64      Int64  Int64      Int64     Int64  Int64   Int64    Int64         Int64          Int64           Int64    Int64          Int64    Int64                Int64     
───────┼──────────────────────────────────────────────────────────────────────────────────────────────────────────────────────────────────────────────────────────────────────────────────────
     1 │       0          0     25          0         0      0       0        0             0              0               0        0              0        0                    1          1
     2 │       0          0     52          0         0      0       0        0             0              0               0        1              0        1                    1          1
     3 │       0          1     51          0         0      0       0        0             0              0               0        0              0        0                    1          1
     4 │       1          1     67          0         1      0       0        0             1              0               0        1              0        0                    1          1
     5 │       0          1     59          0         1      0       0        0             0              0               0        0              0        0                    1          1
     6 │       0          0     52          0         1      0       0        0             1              0               1        0              0        0                    0          1
     7 │       0          1     54          0         0      0       0        0             0              0               0        0              0        0                    0          1
     8 │       0          1     78          0         0      0       0        0             1              0               0        1              0        0                    1          1
   ⋮   │    ⋮         ⋮        ⋮        ⋮         ⋮        ⋮      ⋮        ⋮          ⋮              ⋮              ⋮            ⋮           ⋮           ⋮              ⋮               ⋮
 20346 │       1          1     65          0         0      0       0        0             0              0               0        0              0        0                    0          0
 20347 │       0          1     49          0         0      0       0        0             0              0               0        0              0        0                    0          0
 20348 │       0          1     80          0         1      0       0        0             0              0               0        0              0        0                    0          0
 20349 │       0          0     13          0         0      0       0        0             0              0               0        0              0        0                    0          0
 20350 │       1          0     23          0         0      0       0        0             0              1               0        0              0        1                    0          0
 20351 │       0          1      1          0         0      0       0        0             0              0               0        0              0        0                    0          0
 20352 │       0          1     55          0         0      0       0        0             0              0               0        1              0        0                    0          0
                                                                                                                                                                            20337 rows omitted
```
…
